<?xml version="1.0" encoding="utf-8"  standalone="no"?>
<svg 
 viewBox="0 0 600 480"
 xmlns="http://www.w3.org/2000/svg"
 xmlns:xlink="http://www.w3.org/1999/xlink"
>

<title>Gnuplot</title>
<desc>Produced by GNUPLOT 5.2 patchlevel 8 </desc>

<g id="gnuplot_canvas">

<rect x="0" y="0" width="600" height="480" fill="#e6e0e1"/>
<defs>

	<circle id='gpDot' r='0.5' stroke-width='0.5' stroke='currentColor'/>
	<path id='gpPt0' stroke-width='0.222' stroke='currentColor' d='M-1,0 h2 M0,-1 v2'/>
	<path id='gpPt1' stroke-width='0.222' stroke='currentColor' d='M-1,-1 L1,1 M1,-1 L-1,1'/>
	<path id='gpPt2' stroke-width='0.222' stroke='currentColor' d='M-1,0 L1,0 M0,-1 L0,1 M-1,-1 L1,1 M-1,1 L1,-1'/>
	<rect id='gpPt3' stroke-width='0.222' stroke='currentColor' x='-1' y='-1' width='2' height='2'/>
	<rect id='gpPt4' stroke-width='0.222' stroke='currentColor' fill='currentColor' x='-1' y='-1' width='2' height='2'/>
	<circle id='gpPt5' stroke-width='0.222' stroke='currentColor' cx='0' cy='0' r='1'/>
	<use xlink:href='#gpPt5' id='gpPt6' fill='currentColor' stroke='none'/>
	<path id='gpPt7' stroke-width='0.222' stroke='currentColor' d='M0,-1.33 L-1.33,0.67 L1.33,0.67 z'/>
	<use xlink:href='#gpPt7' id='gpPt8' fill='currentColor' stroke='none'/>
	<use xlink:href='#gpPt7' id='gpPt9' stroke='currentColor' transform='rotate(180)'/>
	<use xlink:href='#gpPt9' id='gpPt10' fill='currentColor' stroke='none'/>
	<use xlink:href='#gpPt3' id='gpPt11' stroke='currentColor' transform='rotate(45)'/>
	<use xlink:href='#gpPt11' id='gpPt12' fill='currentColor' stroke='none'/>
	<path id='gpPt13' stroke-width='0.222' stroke='currentColor' d='M0,1.330 L1.265,0.411 L0.782,-1.067 L-0.782,-1.076 L-1.265,0.411 z'/>
	<use xlink:href='#gpPt13' id='gpPt14' fill='currentColor' stroke='none'/>
	<filter id='textbox' filterUnits='objectBoundingBox' x='0' y='0' height='1' width='1'>
	  <feFlood flood-color='#E6E0E1' flood-opacity='1' result='bgnd'/>
	  <feComposite in='SourceGraphic' in2='bgnd' operator='atop'/>
	</filter>
	<filter id='greybox' filterUnits='objectBoundingBox' x='0' y='0' height='1' width='1'>
	  <feFlood flood-color='lightgrey' flood-opacity='1' result='grey'/>
	  <feComposite in='SourceGraphic' in2='grey' operator='atop'/>
	</filter>
</defs>
<g fill="none" color="#E6E0E1" stroke="currentColor" stroke-width="1.00" stroke-linecap="butt" stroke-linejoin="miter">
</g>
<g fill="none" color="black" stroke="currentColor" stroke-width="1.00" stroke-linecap="butt" stroke-linejoin="miter">
</g>
<g fill="none" color="black" stroke="black" stroke-width="0.50" stroke-linecap="butt" stroke-linejoin="miter">
</g>
<g fill="none" color="gray" stroke="currentColor" stroke-width="0.50" stroke-linecap="butt" stroke-linejoin="miter">
	<path stroke='gray' stroke-dasharray='2,4' class="gridline"  d='M48.0,444.0 L551.9,444.0  '/></g>
<g fill="none" color="gray" stroke="gray" stroke-width="1.00" stroke-linecap="butt" stroke-linejoin="miter">
</g>
<g fill="none" color="black" stroke="currentColor" stroke-width="1.00" stroke-linecap="butt" stroke-linejoin="miter">
	<path stroke='black'  d='M48.0,444.0 L57.0,444.0 M551.9,444.0 L542.9,444.0  '/>	<g transform="translate(39.7,447.9)" stroke="none" fill="black" font-family="Arial" font-size="12.00"  text-anchor="end">
		<text><tspan font-family="Arial" > 0.8</tspan></text>
	</g>
</g>
<g fill="none" color="black" stroke="currentColor" stroke-width="1.00" stroke-linecap="butt" stroke-linejoin="miter">
</g>
<g fill="none" color="black" stroke="black" stroke-width="0.50" stroke-linecap="butt" stroke-linejoin="miter">
</g>
<g fill="none" color="gray" stroke="currentColor" stroke-width="0.50" stroke-linecap="butt" stroke-linejoin="miter">
	<path stroke='gray' stroke-dasharray='2,4' class="gridline"  d='M48.0,397.5 L551.9,397.5  '/></g>
<g fill="none" color="gray" stroke="gray" stroke-width="1.00" stroke-linecap="butt" stroke-linejoin="miter">
</g>
<g fill="none" color="black" stroke="currentColor" stroke-width="1.00" stroke-linecap="butt" stroke-linejoin="miter">
	<path stroke='black'  d='M48.0,397.5 L57.0,397.5 M551.9,397.5 L542.9,397.5  '/>	<g transform="translate(39.7,401.4)" stroke="none" fill="black" font-family="Arial" font-size="12.00"  text-anchor="end">
		<text><tspan font-family="Arial" > 0.9</tspan></text>
	</g>
</g>
<g fill="none" color="black" stroke="currentColor" stroke-width="1.00" stroke-linecap="butt" stroke-linejoin="miter">
</g>
<g fill="none" color="black" stroke="black" stroke-width="0.50" stroke-linecap="butt" stroke-linejoin="miter">
</g>
<g fill="none" color="gray" stroke="currentColor" stroke-width="0.50" stroke-linecap="butt" stroke-linejoin="miter">
	<path stroke='gray' stroke-dasharray='2,4' class="gridline"  d='M48.0,351.0 L551.9,351.0  '/></g>
<g fill="none" color="gray" stroke="gray" stroke-width="1.00" stroke-linecap="butt" stroke-linejoin="miter">
</g>
<g fill="none" color="black" stroke="currentColor" stroke-width="1.00" stroke-linecap="butt" stroke-linejoin="miter">
	<path stroke='black'  d='M48.0,351.0 L57.0,351.0 M551.9,351.0 L542.9,351.0  '/>	<g transform="translate(39.7,354.9)" stroke="none" fill="black" font-family="Arial" font-size="12.00"  text-anchor="end">
		<text><tspan font-family="Arial" > 1</tspan></text>
	</g>
</g>
<g fill="none" color="black" stroke="currentColor" stroke-width="1.00" stroke-linecap="butt" stroke-linejoin="miter">
</g>
<g fill="none" color="black" stroke="black" stroke-width="0.50" stroke-linecap="butt" stroke-linejoin="miter">
</g>
<g fill="none" color="gray" stroke="currentColor" stroke-width="0.50" stroke-linecap="butt" stroke-linejoin="miter">
	<path stroke='gray' stroke-dasharray='2,4' class="gridline"  d='M48.0,304.5 L551.9,304.5  '/></g>
<g fill="none" color="gray" stroke="gray" stroke-width="1.00" stroke-linecap="butt" stroke-linejoin="miter">
</g>
<g fill="none" color="black" stroke="currentColor" stroke-width="1.00" stroke-linecap="butt" stroke-linejoin="miter">
	<path stroke='black'  d='M48.0,304.5 L57.0,304.5 M551.9,304.5 L542.9,304.5  '/>	<g transform="translate(39.7,308.4)" stroke="none" fill="black" font-family="Arial" font-size="12.00"  text-anchor="end">
		<text><tspan font-family="Arial" > 1.1</tspan></text>
	</g>
</g>
<g fill="none" color="black" stroke="currentColor" stroke-width="1.00" stroke-linecap="butt" stroke-linejoin="miter">
</g>
<g fill="none" color="black" stroke="black" stroke-width="0.50" stroke-linecap="butt" stroke-linejoin="miter">
</g>
<g fill="none" color="gray" stroke="currentColor" stroke-width="0.50" stroke-linecap="butt" stroke-linejoin="miter">
	<path stroke='gray' stroke-dasharray='2,4' class="gridline"  d='M48.0,258.0 L551.9,258.0  '/></g>
<g fill="none" color="gray" stroke="gray" stroke-width="1.00" stroke-linecap="butt" stroke-linejoin="miter">
</g>
<g fill="none" color="black" stroke="currentColor" stroke-width="1.00" stroke-linecap="butt" stroke-linejoin="miter">
	<path stroke='black'  d='M48.0,258.0 L57.0,258.0 M551.9,258.0 L542.9,258.0  '/>	<g transform="translate(39.7,261.9)" stroke="none" fill="black" font-family="Arial" font-size="12.00"  text-anchor="end">
		<text><tspan font-family="Arial" > 1.2</tspan></text>
	</g>
</g>
<g fill="none" color="black" stroke="currentColor" stroke-width="1.00" stroke-linecap="butt" stroke-linejoin="miter">
</g>
<g fill="none" color="black" stroke="black" stroke-width="0.50" stroke-linecap="butt" stroke-linejoin="miter">
</g>
<g fill="none" color="gray" stroke="currentColor" stroke-width="0.50" stroke-linecap="butt" stroke-linejoin="miter">
	<path stroke='gray' stroke-dasharray='2,4' class="gridline"  d='M48.0,211.6 L551.9,211.6  '/></g>
<g fill="none" color="gray" stroke="gray" stroke-width="1.00" stroke-linecap="butt" stroke-linejoin="miter">
</g>
<g fill="none" color="black" stroke="currentColor" stroke-width="1.00" stroke-linecap="butt" stroke-linejoin="miter">
	<path stroke='black'  d='M48.0,211.6 L57.0,211.6 M551.9,211.6 L542.9,211.6  '/>	<g transform="translate(39.7,215.5)" stroke="none" fill="black" font-family="Arial" font-size="12.00"  text-anchor="end">
		<text><tspan font-family="Arial" > 1.3</tspan></text>
	</g>
</g>
<g fill="none" color="black" stroke="currentColor" stroke-width="1.00" stroke-linecap="butt" stroke-linejoin="miter">
</g>
<g fill="none" color="black" stroke="black" stroke-width="0.50" stroke-linecap="butt" stroke-linejoin="miter">
</g>
<g fill="none" color="gray" stroke="currentColor" stroke-width="0.50" stroke-linecap="butt" stroke-linejoin="miter">
	<path stroke='gray' stroke-dasharray='2,4' class="gridline"  d='M48.0,165.1 L551.9,165.1  '/></g>
<g fill="none" color="gray" stroke="gray" stroke-width="1.00" stroke-linecap="butt" stroke-linejoin="miter">
</g>
<g fill="none" color="black" stroke="currentColor" stroke-width="1.00" stroke-linecap="butt" stroke-linejoin="miter">
	<path stroke='black'  d='M48.0,165.1 L57.0,165.1 M551.9,165.1 L542.9,165.1  '/>	<g transform="translate(39.7,169.0)" stroke="none" fill="black" font-family="Arial" font-size="12.00"  text-anchor="end">
		<text><tspan font-family="Arial" > 1.4</tspan></text>
	</g>
</g>
<g fill="none" color="black" stroke="currentColor" stroke-width="1.00" stroke-linecap="butt" stroke-linejoin="miter">
</g>
<g fill="none" color="black" stroke="black" stroke-width="0.50" stroke-linecap="butt" stroke-linejoin="miter">
</g>
<g fill="none" color="gray" stroke="currentColor" stroke-width="0.50" stroke-linecap="butt" stroke-linejoin="miter">
	<path stroke='gray' stroke-dasharray='2,4' class="gridline"  d='M48.0,118.6 L551.9,118.6  '/></g>
<g fill="none" color="gray" stroke="gray" stroke-width="1.00" stroke-linecap="butt" stroke-linejoin="miter">
</g>
<g fill="none" color="black" stroke="currentColor" stroke-width="1.00" stroke-linecap="butt" stroke-linejoin="miter">
	<path stroke='black'  d='M48.0,118.6 L57.0,118.6 M551.9,118.6 L542.9,118.6  '/>	<g transform="translate(39.7,122.5)" stroke="none" fill="black" font-family="Arial" font-size="12.00"  text-anchor="end">
		<text><tspan font-family="Arial" > 1.5</tspan></text>
	</g>
</g>
<g fill="none" color="black" stroke="currentColor" stroke-width="1.00" stroke-linecap="butt" stroke-linejoin="miter">
</g>
<g fill="none" color="black" stroke="black" stroke-width="0.50" stroke-linecap="butt" stroke-linejoin="miter">
</g>
<g fill="none" color="gray" stroke="currentColor" stroke-width="0.50" stroke-linecap="butt" stroke-linejoin="miter">
	<path stroke='gray' stroke-dasharray='2,4' class="gridline"  d='M48.0,72.1 L551.9,72.1  '/></g>
<g fill="none" color="gray" stroke="gray" stroke-width="1.00" stroke-linecap="butt" stroke-linejoin="miter">
</g>
<g fill="none" color="black" stroke="currentColor" stroke-width="1.00" stroke-linecap="butt" stroke-linejoin="miter">
	<path stroke='black'  d='M48.0,72.1 L57.0,72.1 M551.9,72.1 L542.9,72.1  '/>	<g transform="translate(39.7,76.0)" stroke="none" fill="black" font-family="Arial" font-size="12.00"  text-anchor="end">
		<text><tspan font-family="Arial" > 1.6</tspan></text>
	</g>
</g>
<g fill="none" color="black" stroke="currentColor" stroke-width="1.00" stroke-linecap="butt" stroke-linejoin="miter">
</g>
<g fill="none" color="black" stroke="black" stroke-width="0.50" stroke-linecap="butt" stroke-linejoin="miter">
</g>
<g fill="none" color="gray" stroke="currentColor" stroke-width="0.50" stroke-linecap="butt" stroke-linejoin="miter">
	<path stroke='gray' stroke-dasharray='2,4' class="gridline"  d='M48.0,444.0 L48.0,72.1  '/></g>
<g fill="none" color="gray" stroke="gray" stroke-width="1.00" stroke-linecap="butt" stroke-linejoin="miter">
</g>
<g fill="none" color="black" stroke="currentColor" stroke-width="1.00" stroke-linecap="butt" stroke-linejoin="miter">
	<path stroke='black'  d='M48.0,444.0 L48.0,435.0 M48.0,72.1 L48.0,81.1  '/>	<g transform="translate(48.0,465.9)" stroke="none" fill="black" font-family="Arial" font-size="12.00"  text-anchor="middle">
		<text><tspan font-family="Arial" >26/12/19</tspan></text>
	</g>
</g>
<g fill="none" color="black" stroke="currentColor" stroke-width="1.00" stroke-linecap="butt" stroke-linejoin="miter">
</g>
<g fill="none" color="black" stroke="black" stroke-width="0.50" stroke-linecap="butt" stroke-linejoin="miter">
</g>
<g fill="none" color="gray" stroke="currentColor" stroke-width="0.50" stroke-linecap="butt" stroke-linejoin="miter">
	<path stroke='gray' stroke-dasharray='2,4' class="gridline"  d='M75.8,444.0 L75.8,72.1  '/></g>
<g fill="none" color="gray" stroke="gray" stroke-width="1.00" stroke-linecap="butt" stroke-linejoin="miter">
</g>
<g fill="none" color="black" stroke="currentColor" stroke-width="1.00" stroke-linecap="butt" stroke-linejoin="miter">
	<path stroke='black'  d='M75.8,444.0 L75.8,439.5 M75.8,72.1 L75.8,76.6  '/></g>
<g fill="none" color="black" stroke="black" stroke-width="0.50" stroke-linecap="butt" stroke-linejoin="miter">
</g>
<g fill="none" color="gray" stroke="currentColor" stroke-width="0.50" stroke-linecap="butt" stroke-linejoin="miter">
	<path stroke='gray' stroke-dasharray='2,4' class="gridline"  d='M103.7,444.0 L103.7,72.1  '/></g>
<g fill="none" color="gray" stroke="gray" stroke-width="1.00" stroke-linecap="butt" stroke-linejoin="miter">
</g>
<g fill="none" color="black" stroke="currentColor" stroke-width="1.00" stroke-linecap="butt" stroke-linejoin="miter">
	<path stroke='black'  d='M103.7,444.0 L103.7,435.0 M103.7,72.1 L103.7,81.1  '/>	<g transform="translate(103.7,465.9)" stroke="none" fill="black" font-family="Arial" font-size="12.00"  text-anchor="middle">
		<text><tspan font-family="Arial" >09/01/20</tspan></text>
	</g>
</g>
<g fill="none" color="black" stroke="currentColor" stroke-width="1.00" stroke-linecap="butt" stroke-linejoin="miter">
</g>
<g fill="none" color="black" stroke="black" stroke-width="0.50" stroke-linecap="butt" stroke-linejoin="miter">
</g>
<g fill="none" color="gray" stroke="currentColor" stroke-width="0.50" stroke-linecap="butt" stroke-linejoin="miter">
	<path stroke='gray' stroke-dasharray='2,4' class="gridline"  d='M131.5,444.0 L131.5,72.1  '/></g>
<g fill="none" color="gray" stroke="gray" stroke-width="1.00" stroke-linecap="butt" stroke-linejoin="miter">
</g>
<g fill="none" color="black" stroke="currentColor" stroke-width="1.00" stroke-linecap="butt" stroke-linejoin="miter">
	<path stroke='black'  d='M131.5,444.0 L131.5,439.5 M131.5,72.1 L131.5,76.6  '/></g>
<g fill="none" color="black" stroke="black" stroke-width="0.50" stroke-linecap="butt" stroke-linejoin="miter">
</g>
<g fill="none" color="gray" stroke="currentColor" stroke-width="0.50" stroke-linecap="butt" stroke-linejoin="miter">
	<path stroke='gray' stroke-dasharray='2,4' class="gridline"  d='M159.4,444.0 L159.4,99.1 M159.4,81.1 L159.4,72.1  '/></g>
<g fill="none" color="gray" stroke="gray" stroke-width="1.00" stroke-linecap="butt" stroke-linejoin="miter">
</g>
<g fill="none" color="black" stroke="currentColor" stroke-width="1.00" stroke-linecap="butt" stroke-linejoin="miter">
	<path stroke='black'  d='M159.4,444.0 L159.4,435.0 M159.4,72.1 L159.4,81.1  '/>	<g transform="translate(159.4,465.9)" stroke="none" fill="black" font-family="Arial" font-size="12.00"  text-anchor="middle">
		<text><tspan font-family="Arial" >23/01/20</tspan></text>
	</g>
</g>
<g fill="none" color="black" stroke="currentColor" stroke-width="1.00" stroke-linecap="butt" stroke-linejoin="miter">
</g>
<g fill="none" color="black" stroke="black" stroke-width="0.50" stroke-linecap="butt" stroke-linejoin="miter">
</g>
<g fill="none" color="gray" stroke="currentColor" stroke-width="0.50" stroke-linecap="butt" stroke-linejoin="miter">
	<path stroke='gray' stroke-dasharray='2,4' class="gridline"  d='M187.2,444.0 L187.2,99.1 M187.2,81.1 L187.2,72.1  '/></g>
<g fill="none" color="gray" stroke="gray" stroke-width="1.00" stroke-linecap="butt" stroke-linejoin="miter">
</g>
<g fill="none" color="black" stroke="currentColor" stroke-width="1.00" stroke-linecap="butt" stroke-linejoin="miter">
	<path stroke='black'  d='M187.2,444.0 L187.2,439.5 M187.2,72.1 L187.2,76.6  '/></g>
<g fill="none" color="black" stroke="black" stroke-width="0.50" stroke-linecap="butt" stroke-linejoin="miter">
</g>
<g fill="none" color="gray" stroke="currentColor" stroke-width="0.50" stroke-linecap="butt" stroke-linejoin="miter">
	<path stroke='gray' stroke-dasharray='2,4' class="gridline"  d='M215.1,444.0 L215.1,99.1 M215.1,81.1 L215.1,72.1  '/></g>
<g fill="none" color="gray" stroke="gray" stroke-width="1.00" stroke-linecap="butt" stroke-linejoin="miter">
</g>
<g fill="none" color="black" stroke="currentColor" stroke-width="1.00" stroke-linecap="butt" stroke-linejoin="miter">
	<path stroke='black'  d='M215.1,444.0 L215.1,435.0 M215.1,72.1 L215.1,81.1  '/>	<g transform="translate(215.1,465.9)" stroke="none" fill="black" font-family="Arial" font-size="12.00"  text-anchor="middle">
		<text><tspan font-family="Arial" >06/02/20</tspan></text>
	</g>
</g>
<g fill="none" color="black" stroke="currentColor" stroke-width="1.00" stroke-linecap="butt" stroke-linejoin="miter">
</g>
<g fill="none" color="black" stroke="black" stroke-width="0.50" stroke-linecap="butt" stroke-linejoin="miter">
</g>
<g fill="none" color="gray" stroke="currentColor" stroke-width="0.50" stroke-linecap="butt" stroke-linejoin="miter">
	<path stroke='gray' stroke-dasharray='2,4' class="gridline"  d='M242.9,444.0 L242.9,99.1 M242.9,81.1 L242.9,72.1  '/></g>
<g fill="none" color="gray" stroke="gray" stroke-width="1.00" stroke-linecap="butt" stroke-linejoin="miter">
</g>
<g fill="none" color="black" stroke="currentColor" stroke-width="1.00" stroke-linecap="butt" stroke-linejoin="miter">
	<path stroke='black'  d='M242.9,444.0 L242.9,439.5 M242.9,72.1 L242.9,76.6  '/></g>
<g fill="none" color="black" stroke="black" stroke-width="0.50" stroke-linecap="butt" stroke-linejoin="miter">
</g>
<g fill="none" color="gray" stroke="currentColor" stroke-width="0.50" stroke-linecap="butt" stroke-linejoin="miter">
	<path stroke='gray' stroke-dasharray='2,4' class="gridline"  d='M270.7,444.0 L270.7,99.1 M270.7,81.1 L270.7,72.1  '/></g>
<g fill="none" color="gray" stroke="gray" stroke-width="1.00" stroke-linecap="butt" stroke-linejoin="miter">
</g>
<g fill="none" color="black" stroke="currentColor" stroke-width="1.00" stroke-linecap="butt" stroke-linejoin="miter">
	<path stroke='black'  d='M270.7,444.0 L270.7,435.0 M270.7,72.1 L270.7,81.1  '/>	<g transform="translate(270.7,465.9)" stroke="none" fill="black" font-family="Arial" font-size="12.00"  text-anchor="middle">
		<text><tspan font-family="Arial" >20/02/20</tspan></text>
	</g>
</g>
<g fill="none" color="black" stroke="currentColor" stroke-width="1.00" stroke-linecap="butt" stroke-linejoin="miter">
</g>
<g fill="none" color="black" stroke="black" stroke-width="0.50" stroke-linecap="butt" stroke-linejoin="miter">
</g>
<g fill="none" color="gray" stroke="currentColor" stroke-width="0.50" stroke-linecap="butt" stroke-linejoin="miter">
	<path stroke='gray' stroke-dasharray='2,4' class="gridline"  d='M298.6,444.0 L298.6,99.1 M298.6,81.1 L298.6,72.1  '/></g>
<g fill="none" color="gray" stroke="gray" stroke-width="1.00" stroke-linecap="butt" stroke-linejoin="miter">
</g>
<g fill="none" color="black" stroke="currentColor" stroke-width="1.00" stroke-linecap="butt" stroke-linejoin="miter">
	<path stroke='black'  d='M298.6,444.0 L298.6,439.5 M298.6,72.1 L298.6,76.6  '/></g>
<g fill="none" color="black" stroke="black" stroke-width="0.50" stroke-linecap="butt" stroke-linejoin="miter">
</g>
<g fill="none" color="gray" stroke="currentColor" stroke-width="0.50" stroke-linecap="butt" stroke-linejoin="miter">
	<path stroke='gray' stroke-dasharray='2,4' class="gridline"  d='M326.4,444.0 L326.4,99.1 M326.4,81.1 L326.4,72.1  '/></g>
<g fill="none" color="gray" stroke="gray" stroke-width="1.00" stroke-linecap="butt" stroke-linejoin="miter">
</g>
<g fill="none" color="black" stroke="currentColor" stroke-width="1.00" stroke-linecap="butt" stroke-linejoin="miter">
	<path stroke='black'  d='M326.4,444.0 L326.4,435.0 M326.4,72.1 L326.4,81.1  '/>	<g transform="translate(326.4,465.9)" stroke="none" fill="black" font-family="Arial" font-size="12.00"  text-anchor="middle">
		<text><tspan font-family="Arial" >05/03/20</tspan></text>
	</g>
</g>
<g fill="none" color="black" stroke="currentColor" stroke-width="1.00" stroke-linecap="butt" stroke-linejoin="miter">
</g>
<g fill="none" color="black" stroke="black" stroke-width="0.50" stroke-linecap="butt" stroke-linejoin="miter">
</g>
<g fill="none" color="gray" stroke="currentColor" stroke-width="0.50" stroke-linecap="butt" stroke-linejoin="miter">
	<path stroke='gray' stroke-dasharray='2,4' class="gridline"  d='M354.3,444.0 L354.3,99.1 M354.3,81.1 L354.3,72.1  '/></g>
<g fill="none" color="gray" stroke="gray" stroke-width="1.00" stroke-linecap="butt" stroke-linejoin="miter">
</g>
<g fill="none" color="black" stroke="currentColor" stroke-width="1.00" stroke-linecap="butt" stroke-linejoin="miter">
	<path stroke='black'  d='M354.3,444.0 L354.3,439.5 M354.3,72.1 L354.3,76.6  '/></g>
<g fill="none" color="black" stroke="black" stroke-width="0.50" stroke-linecap="butt" stroke-linejoin="miter">
</g>
<g fill="none" color="gray" stroke="currentColor" stroke-width="0.50" stroke-linecap="butt" stroke-linejoin="miter">
	<path stroke='gray' stroke-dasharray='2,4' class="gridline"  d='M382.1,444.0 L382.1,99.1 M382.1,81.1 L382.1,72.1  '/></g>
<g fill="none" color="gray" stroke="gray" stroke-width="1.00" stroke-linecap="butt" stroke-linejoin="miter">
</g>
<g fill="none" color="black" stroke="currentColor" stroke-width="1.00" stroke-linecap="butt" stroke-linejoin="miter">
	<path stroke='black'  d='M382.1,444.0 L382.1,435.0 M382.1,72.1 L382.1,81.1  '/>	<g transform="translate(382.1,465.9)" stroke="none" fill="black" font-family="Arial" font-size="12.00"  text-anchor="middle">
		<text><tspan font-family="Arial" >19/03/20</tspan></text>
	</g>
</g>
<g fill="none" color="black" stroke="currentColor" stroke-width="1.00" stroke-linecap="butt" stroke-linejoin="miter">
</g>
<g fill="none" color="black" stroke="black" stroke-width="0.50" stroke-linecap="butt" stroke-linejoin="miter">
</g>
<g fill="none" color="gray" stroke="currentColor" stroke-width="0.50" stroke-linecap="butt" stroke-linejoin="miter">
	<path stroke='gray' stroke-dasharray='2,4' class="gridline"  d='M409.9,444.0 L409.9,99.1 M409.9,81.1 L409.9,72.1  '/></g>
<g fill="none" color="gray" stroke="gray" stroke-width="1.00" stroke-linecap="butt" stroke-linejoin="miter">
</g>
<g fill="none" color="black" stroke="currentColor" stroke-width="1.00" stroke-linecap="butt" stroke-linejoin="miter">
	<path stroke='black'  d='M409.9,444.0 L409.9,439.5 M409.9,72.1 L409.9,76.6  '/></g>
<g fill="none" color="black" stroke="black" stroke-width="0.50" stroke-linecap="butt" stroke-linejoin="miter">
</g>
<g fill="none" color="gray" stroke="currentColor" stroke-width="0.50" stroke-linecap="butt" stroke-linejoin="miter">
	<path stroke='gray' stroke-dasharray='2,4' class="gridline"  d='M437.8,444.0 L437.8,99.1 M437.8,81.1 L437.8,72.1  '/></g>
<g fill="none" color="gray" stroke="gray" stroke-width="1.00" stroke-linecap="butt" stroke-linejoin="miter">
</g>
<g fill="none" color="black" stroke="currentColor" stroke-width="1.00" stroke-linecap="butt" stroke-linejoin="miter">
	<path stroke='black'  d='M437.8,444.0 L437.8,435.0 M437.8,72.1 L437.8,81.1  '/>	<g transform="translate(437.8,465.9)" stroke="none" fill="black" font-family="Arial" font-size="12.00"  text-anchor="middle">
		<text><tspan font-family="Arial" >02/04/20</tspan></text>
	</g>
</g>
<g fill="none" color="black" stroke="currentColor" stroke-width="1.00" stroke-linecap="butt" stroke-linejoin="miter">
</g>
<g fill="none" color="black" stroke="black" stroke-width="0.50" stroke-linecap="butt" stroke-linejoin="miter">
</g>
<g fill="none" color="gray" stroke="currentColor" stroke-width="0.50" stroke-linecap="butt" stroke-linejoin="miter">
	<path stroke='gray' stroke-dasharray='2,4' class="gridline"  d='M465.6,444.0 L465.6,99.1 M465.6,81.1 L465.6,72.1  '/></g>
<g fill="none" color="gray" stroke="gray" stroke-width="1.00" stroke-linecap="butt" stroke-linejoin="miter">
</g>
<g fill="none" color="black" stroke="currentColor" stroke-width="1.00" stroke-linecap="butt" stroke-linejoin="miter">
	<path stroke='black'  d='M465.6,444.0 L465.6,439.5 M465.6,72.1 L465.6,76.6  '/></g>
<g fill="none" color="black" stroke="black" stroke-width="0.50" stroke-linecap="butt" stroke-linejoin="miter">
</g>
<g fill="none" color="gray" stroke="currentColor" stroke-width="0.50" stroke-linecap="butt" stroke-linejoin="miter">
	<path stroke='gray' stroke-dasharray='2,4' class="gridline"  d='M493.5,444.0 L493.5,99.1 M493.5,81.1 L493.5,72.1  '/></g>
<g fill="none" color="gray" stroke="gray" stroke-width="1.00" stroke-linecap="butt" stroke-linejoin="miter">
</g>
<g fill="none" color="black" stroke="currentColor" stroke-width="1.00" stroke-linecap="butt" stroke-linejoin="miter">
	<path stroke='black'  d='M493.5,444.0 L493.5,435.0 M493.5,72.1 L493.5,81.1  '/>	<g transform="translate(493.5,465.9)" stroke="none" fill="black" font-family="Arial" font-size="12.00"  text-anchor="middle">
		<text><tspan font-family="Arial" >16/04/20</tspan></text>
	</g>
</g>
<g fill="none" color="black" stroke="currentColor" stroke-width="1.00" stroke-linecap="butt" stroke-linejoin="miter">
</g>
<g fill="none" color="black" stroke="black" stroke-width="0.50" stroke-linecap="butt" stroke-linejoin="miter">
</g>
<g fill="none" color="gray" stroke="currentColor" stroke-width="0.50" stroke-linecap="butt" stroke-linejoin="miter">
	<path stroke='gray' stroke-dasharray='2,4' class="gridline"  d='M521.3,444.0 L521.3,99.1 M521.3,81.1 L521.3,72.1  '/></g>
<g fill="none" color="gray" stroke="gray" stroke-width="1.00" stroke-linecap="butt" stroke-linejoin="miter">
</g>
<g fill="none" color="black" stroke="currentColor" stroke-width="1.00" stroke-linecap="butt" stroke-linejoin="miter">
	<path stroke='black'  d='M521.3,444.0 L521.3,439.5 M521.3,72.1 L521.3,76.6  '/></g>
<g fill="none" color="black" stroke="black" stroke-width="0.50" stroke-linecap="butt" stroke-linejoin="miter">
</g>
<g fill="none" color="gray" stroke="currentColor" stroke-width="0.50" stroke-linecap="butt" stroke-linejoin="miter">
	<path stroke='gray' stroke-dasharray='2,4' class="gridline"  d='M549.2,444.0 L549.2,72.1  '/></g>
<g fill="none" color="gray" stroke="gray" stroke-width="1.00" stroke-linecap="butt" stroke-linejoin="miter">
</g>
<g fill="none" color="black" stroke="currentColor" stroke-width="1.00" stroke-linecap="butt" stroke-linejoin="miter">
	<path stroke='black'  d='M549.2,444.0 L549.2,435.0 M549.2,72.1 L549.2,81.1  '/>	<g transform="translate(549.2,465.9)" stroke="none" fill="black" font-family="Arial" font-size="12.00"  text-anchor="middle">
		<text><tspan font-family="Arial" >30/04/20</tspan></text>
	</g>
</g>
<g fill="none" color="black" stroke="currentColor" stroke-width="1.00" stroke-linecap="butt" stroke-linejoin="miter">
</g>
<g fill="none" color="black" stroke="currentColor" stroke-width="1.00" stroke-linecap="butt" stroke-linejoin="miter">
	<path stroke='black'  d='M48.0,72.1 L48.0,444.0 L551.9,444.0 L551.9,72.1 L48.0,72.1 Z  '/></g>
<g fill="none" color="black" stroke="currentColor" stroke-width="1.00" stroke-linecap="butt" stroke-linejoin="miter">
	<g transform="translate(299.9,31.0)" stroke="none" fill="black" font-family="Arial" font-size="12.00"  text-anchor="middle">
		<text><tspan font-family="Arial" >Growth Factor of daily reported deaths</tspan></text>
	</g>
	<g transform="translate(299.9,49.0)" stroke="none" fill="black" font-family="Arial" font-size="12.00"  text-anchor="middle">
		<text><tspan font-family="Arial"  font-size="9.0">Method: 9 days rolling log-linear least squares with gaussian weights. Computed values at center of rolling sample.</tspan><tspan font-size="12.0" dy="0.00"></tspan></text>
	</g>
</g>
<g fill="none" color="black" stroke="currentColor" stroke-width="1.00" stroke-linecap="butt" stroke-linejoin="miter">
</g>
	<g id="gnuplot_plot_1" ><title>gnuplot_plot_1</title>
<g fill="none" color="gray" stroke="currentColor" stroke-width="1.00" stroke-linecap="butt" stroke-linejoin="miter">
</g>
	</g>
	<g id="gnuplot_plot_2" ><title>Italy</title>
<g fill="none" color="#E6E0E1" stroke="gray" stroke-width="1.50" stroke-linecap="butt" stroke-linejoin="miter">
</g>
<g fill="none" color="black" stroke="currentColor" stroke-width="1.50" stroke-linecap="butt" stroke-linejoin="miter">
	<g transform="translate(183.9,94.0)" stroke="none" fill="black" font-family="Arial" font-size="12.00"  text-anchor="end">
		<text>Italy</text>
	</g>
</g>
<g fill="none" color="black" stroke="currentColor" stroke-width="1.50" stroke-linecap="butt" stroke-linejoin="miter">
	<path stroke='rgb(148,   0, 211)'  d='M192.2,90.1 L234.4,90.1 M284.7,263.5 L286.6,263.0 L288.6,262.4 L290.6,259.2 L292.6,256.2 L294.5,257.6
		L296.5,259.1 L296.6,259.1 L298.5,254.8 L300.4,245.2 L300.6,244.5 L302.4,228.4 L304.4,209.5 L304.5,208.5
		L306.4,200.8 L308.3,192.8 L308.5,191.7 L310.3,175.5 L312.3,155.3 L312.5,153.7 L314.3,141.3 L316.2,132.8
		L316.5,132.7 L318.2,149.6 L320.2,174.5 L320.5,175.1 L322.1,174.0 L324.1,172.4 L324.4,172.3 L326.1,179.2
		L328.1,191.4 L328.4,192.3 L330.0,194.1 L332.0,195.7 L332.4,196.2 L334.0,201.0 L336.0,207.6 L336.4,208.0
		L337.9,208.5 L339.9,208.9 L340.3,209.0 L341.9,209.2 L343.8,209.6 L344.3,209.7 L345.8,216.1 L347.8,231.2
		L348.3,234.0 L349.8,239.4 L351.7,245.6 L352.3,247.6 L353.7,253.2 L355.7,261.7 L356.3,264.4 L357.7,273.6
		L359.6,285.9 L360.2,286.9 L361.6,285.8 L363.6,283.3 L364.2,283.0 L365.5,284.8 L367.5,289.2 L368.2,289.7
		L369.5,288.9 L371.5,286.1 L372.2,285.1 L373.4,282.7 L375.4,278.9 L376.1,278.5 L377.4,278.8 L379.4,280.4
		L380.1,281.1 L381.3,282.4 L383.3,285.4 L384.1,287.0 L385.3,290.6 L387.2,298.4 L388.1,300.9 L389.2,303.1
		L391.2,306.3 L392.1,308.1 L393.2,311.4 L395.1,318.7 L396.0,321.3 L397.1,323.8 L399.1,327.5 L400.0,328.5
		L401.1,329.1 L403.0,329.9 L404.0,330.5 L405.0,331.7 L407.0,334.9 L408.0,335.5 L408.9,335.5 L410.9,335.0
		L411.9,334.8 L412.9,334.4 L414.9,333.3 L415.9,333.0 L416.8,333.6 L418.8,337.5 L419.9,339.8 L420.8,341.6
		L422.8,346.1 L423.9,348.1 L424.7,349.3 L426.7,351.4 L427.8,352.8 L428.7,354.0 L430.6,357.1 L431.8,359.2
		L432.6,361.2 L434.6,366.9 L435.8,368.6 L436.6,368.7 L438.5,368.9 L439.8,369.1 L440.5,369.2 L442.5,370.0
		L443.8,370.6 L444.5,371.1 L446.4,373.2 L447.7,373.8 L448.4,373.7 L450.4,372.7 L451.7,371.7 L452.3,371.2
		L454.3,369.2 L455.7,367.7 L456.3,366.9 L458.3,364.0 L459.7,362.8 L460.2,362.7 L462.2,362.6 L463.6,362.4
		L464.2,362.3 L466.2,360.6 L467.6,359.2 L468.1,358.8 L470.1,357.2 L471.6,356.6 L472.1,356.6 L474.1,356.8
		L475.6,356.8 L476.0,356.8 L478.0,355.7 L479.6,354.6 L480.0,354.3 L481.9,352.5 L483.5,351.7 L483.9,351.7
		L485.9,352.5 L487.5,353.4 L487.9,353.6 L489.8,355.0 L491.5,356.4 L491.8,356.7 L493.8,359.5 L495.5,361.0
		L495.8,361.0 L497.7,361.2 L499.4,361.3 L499.7,361.4 L501.7,364.8 L503.4,367.1 L503.6,367.1 L505.6,366.4
		L507.4,365.3 L507.6,365.2 L509.6,364.0 L511.4,362.9 L511.5,362.8 L513.5,361.7 L515.4,361.2 L515.5,361.3
		L517.5,364.8 L519.3,369.0 L519.4,369.1 L521.4,371.4 L523.3,373.0 L523.4,373.1 L525.3,374.5 L527.3,375.8
		L529.3,377.1 L530.3,377.7 L531.3,378.3  '/></g>
	</g>
	<g id="gnuplot_plot_3" ><title>UK</title>
<g fill="none" color="black" stroke="currentColor" stroke-width="1.50" stroke-linecap="butt" stroke-linejoin="miter">
	<g transform="translate(284.2,94.0)" stroke="none" fill="black" font-family="Arial" font-size="12.00"  text-anchor="end">
		<text>UK</text>
	</g>
</g>
<g fill="none" color="black" stroke="currentColor" stroke-width="1.50" stroke-linecap="butt" stroke-linejoin="miter">
	<path stroke='rgb(  0, 158, 115)'  d='M292.5,90.1 L334.7,90.1 M332.4,336.1 L334.4,336.1 L336.3,336.0 L336.4,336.0 L338.3,325.7 L340.3,314.6
		L340.3,314.5 L342.2,315.3 L344.2,316.2 L344.3,316.2 L346.2,304.5 L348.1,280.8 L348.3,279.1 L350.1,258.1
		L352.1,232.5 L352.3,229.8 L354.0,200.3 L356.0,172.3 L356.3,170.6 L358.0,163.5 L360.0,157.1 L360.2,155.8
		L361.9,142.7 L363.9,125.2 L364.2,123.1 L365.9,112.4 L367.8,104.0 L368.2,103.7 L369.8,111.0 L371.8,128.8
		L372.2,131.9 L373.7,145.0 L375.7,160.7 L376.1,163.5 L377.7,170.5 L379.6,179.0 L380.1,181.9 L381.6,201.6
		L383.6,230.2 L384.1,232.5 L385.6,233.5 L387.5,234.3 L388.1,234.7 L389.5,241.5 L391.5,256.7 L392.1,259.5
		L393.4,262.8 L395.4,266.4 L396.0,268.1 L397.4,275.1 L399.3,286.7 L400.0,287.9 L401.3,282.5 L403.3,264.5
		L404.0,259.3 L405.2,251.3 L407.2,240.8 L408.0,238.9 L409.2,237.8 L411.2,236.7 L411.9,236.0 L413.1,233.4
		L415.1,226.5 L415.9,223.9 L417.1,220.4 L419.0,214.9 L419.9,214.1 L421.0,216.0 L423.0,223.1 L423.9,225.0
		L424.9,225.7 L426.9,226.4 L427.8,227.0 L428.9,230.3 L430.8,243.0 L431.8,248.0 L432.8,251.0 L434.8,255.7
		L435.8,258.7 L436.7,262.9 L438.7,273.9 L439.8,279.2 L440.7,282.6 L442.7,289.0 L443.8,292.8 L444.6,296.1
		L446.6,304.2 L447.7,308.7 L448.6,312.4 L450.5,321.5 L451.7,323.7 L452.5,323.6 L454.5,322.6 L455.7,321.7
		L456.4,320.4 L458.4,314.3 L459.7,312.3 L460.4,312.8 L462.3,318.0 L463.6,321.4 L464.3,322.6 L466.3,325.5
		L467.6,327.8 L468.3,329.1 L470.2,333.8 L471.6,337.6 L472.2,339.4 L474.2,346.0 L475.6,350.7 L476.1,352.6
		L478.1,360.1 L479.6,362.7 L480.1,362.7 L482.0,362.1 L483.5,361.3 L484.0,360.9 L486.0,356.4 L487.5,354.3
		L487.9,354.3 L489.9,354.4 L491.5,354.5 L491.9,354.8 L493.9,358.6 L495.5,361.1 L495.8,361.3 L497.8,361.7
		L499.4,362.1 L499.8,362.2 L501.7,363.8 L503.4,365.2 L503.7,365.4 L505.7,366.9 L507.4,367.5 L507.6,367.5
		L509.6,365.3 L511.4,362.1 L511.6,361.8 L513.5,356.5 L515.4,353.5 L515.5,353.5 L517.5,353.9 L519.3,354.8
		L519.4,354.9 L521.4,359.2 L523.3,363.9 L523.4,364.0 L525.4,367.0 L527.3,368.4 L527.3,368.3 L529.3,358.0
		L530.3,349.2 L531.3,341.3  '/></g>
	</g>
	<g id="gnuplot_plot_4" ><title>USA</title>
<g fill="none" color="black" stroke="currentColor" stroke-width="1.50" stroke-linecap="butt" stroke-linejoin="miter">
	<g transform="translate(384.5,94.0)" stroke="none" fill="black" font-family="Arial" font-size="12.00"  text-anchor="end">
		<text>USA</text>
	</g>
</g>
<g fill="none" color="black" stroke="currentColor" stroke-width="1.50" stroke-linecap="butt" stroke-linejoin="miter">
	<path stroke='rgb( 86, 180, 233)'  d='M392.8,90.1 L435.0,90.1 M312.5,286.6 L314.5,290.8 L316.4,295.2 L316.5,295.3 L318.4,300.6 L320.4,305.7
		L320.5,305.8 L322.4,309.7 L324.3,312.0 L324.4,312.0 L326.3,310.5 L328.3,308.7 L328.4,308.7 L330.2,311.0
		L332.2,315.9 L332.4,316.3 L334.2,322.0 L336.2,326.8 L336.4,326.9 L338.1,316.4 L340.1,297.5 L340.3,296.0
		L342.1,288.5 L344.0,281.8 L344.3,280.8 L346.0,275.1 L348.0,269.6 L348.3,269.0 L349.9,267.1 L351.9,264.9
		L352.3,264.2 L353.9,257.8 L355.9,245.8 L356.3,243.5 L357.8,234.0 L359.8,221.1 L360.2,218.3 L361.8,205.1
		L363.7,191.1 L364.2,190.4 L365.7,210.2 L367.7,253.2 L368.2,258.2 L369.7,264.5 L371.6,269.8 L372.2,271.0
		L373.6,274.5 L375.6,277.9 L376.1,278.2 L377.5,269.9 L379.5,244.8 L380.1,238.0 L381.5,225.3 L383.5,207.0
		L384.1,200.3 L385.4,183.8 L387.4,157.1 L388.1,149.1 L389.4,134.2 L391.3,115.2 L392.1,111.9 L393.3,108.9
		L395.3,106.1 L396.0,105.8 L397.2,107.6 L399.2,115.0 L400.0,118.4 L401.2,123.4 L403.2,134.8 L404.0,141.9
		L405.1,168.8 L407.1,236.2 L408.0,247.4 L409.1,246.9 L411.0,244.9 L411.9,244.6 L413.0,245.3 L415.0,248.2
		L415.9,248.8 L417.0,248.3 L418.9,246.4 L419.9,246.0 L420.9,247.0 L422.9,251.6 L423.9,252.9 L424.8,253.2
		L426.8,253.5 L427.8,253.8 L428.8,254.3 L430.8,256.1 L431.8,257.6 L432.7,259.9 L434.7,268.6 L435.8,273.1
		L436.7,275.9 L438.6,281.7 L439.8,284.5 L440.6,286.1 L442.6,289.3 L443.8,291.6 L444.5,294.1 L446.5,302.2
		L447.7,304.9 L448.5,305.2 L450.5,305.9 L451.7,306.0 L452.4,305.8 L454.4,304.1 L455.7,303.5 L456.4,303.5
		L458.3,304.7 L459.7,306.0 L460.3,307.2 L462.3,314.4 L463.6,320.0 L464.3,322.4 L466.2,330.5 L467.6,334.8
		L468.2,335.9 L470.2,339.4 L471.6,340.3 L472.1,340.0 L474.1,335.5 L475.6,332.2 L476.1,331.6 L478.0,329.8
		L479.6,328.0 L480.0,326.7 L482.0,315.7 L483.5,310.5 L484.0,310.5 L485.9,310.4 L487.5,310.4 L487.9,310.6
		L489.9,316.0 L491.5,322.4 L491.8,323.8 L493.8,332.8 L495.5,340.6 L495.8,341.9 L497.8,350.1 L499.4,357.2
		L499.7,358.6 L501.7,370.5 L503.4,376.6 L503.7,376.7 L505.6,377.0 L507.4,377.4 L507.6,377.5 L509.6,379.8
		L511.4,381.3 L511.6,381.2 L513.5,372.7 L515.4,366.0 L515.5,366.0 L517.5,366.0 L519.3,366.1 L519.4,366.1
		L521.4,365.1 L523.3,364.1 L523.4,364.1 L525.3,364.9 L527.3,365.7 L529.3,363.3 L530.3,361.3 L531.3,359.5
		 '/></g>
	</g>
	<g id="gnuplot_plot_5" ><title>China</title>
<g fill="none" color="black" stroke="currentColor" stroke-width="1.50" stroke-linecap="butt" stroke-linejoin="miter">
	<g transform="translate(484.8,94.0)" stroke="none" fill="black" font-family="Arial" font-size="12.00"  text-anchor="end">
		<text>China</text>
	</g>
</g>
<g fill="none" color="black" stroke="currentColor" stroke-width="1.50" stroke-linecap="butt" stroke-linejoin="miter">
	<path stroke='rgb(230, 159,   0)'  d='M493.1,90.1 L535.3,90.1 M113.6,351.0 L115.6,351.0 L117.6,351.0 L119.6,351.0 L121.5,351.0 L121.6,351.0
		L123.5,351.0 L125.5,351.0 L125.6,351.0 L127.5,351.0 L129.5,351.0 L131.4,345.3 L133.4,332.3 L133.5,331.6
		L135.4,306.9 L137.4,282.0 L137.5,281.4 L139.4,276.1 L141.3,271.1 L141.5,270.5 L143.3,255.3 L145.3,232.6
		L145.4,231.1 L147.3,211.3 L149.3,191.1 L149.4,189.7 L151.2,175.8 L153.2,162.8 L153.4,161.6 L155.2,149.6
		L157.2,140.2 L157.4,139.8 L159.2,137.6 L161.1,136.5 L161.4,136.5 L163.1,140.9 L165.1,151.2 L165.3,152.5
		L167.1,163.3 L169.0,176.5 L169.3,178.0 L171.0,186.3 L173.0,194.1 L173.3,194.9 L175.0,198.3 L177.0,202.5
		L177.3,203.5 L178.9,226.2 L180.9,260.1 L181.2,262.5 L182.9,269.4 L184.9,274.4 L185.2,275.1 L186.9,277.6
		L188.8,280.3 L189.2,280.9 L190.8,285.0 L192.8,289.9 L193.2,290.5 L194.8,292.0 L196.8,293.5 L197.2,293.9
		L198.7,296.4 L200.7,300.3 L201.1,301.0 L202.7,303.8 L204.7,306.8 L205.1,307.2 L206.7,308.2 L208.6,309.1
		L209.1,309.2 L210.6,309.9 L212.6,310.7 L213.1,310.9 L214.6,311.3 L216.6,311.8 L217.0,312.0 L218.5,314.0
		L220.5,317.1 L221.0,317.3 L222.5,313.1 L224.5,304.2 L225.0,303.6 L226.4,314.1 L228.4,338.7 L229.0,342.1
		L230.4,346.2 L232.4,349.8 L233.0,350.7 L234.4,352.4 L236.3,354.4 L236.9,354.9 L238.3,356.1 L240.3,357.4
		L240.9,357.5 L242.3,356.9 L244.3,354.4 L244.9,353.4 L246.2,349.8 L248.2,342.2 L248.9,340.0 L250.2,336.0
		L252.2,330.7 L252.8,329.1 L254.2,325.8 L256.1,321.9 L256.8,321.5 L258.1,322.2 L260.1,323.9 L260.8,324.1
		L262.1,323.5 L264.1,321.9 L264.8,321.7 L266.0,329.3 L268.0,351.7 L268.7,355.6 L270.0,357.0 L272.0,358.4
		L272.7,359.2 L274.0,361.6 L275.9,367.9 L276.7,370.9 L277.9,377.7 L279.9,392.3 L280.7,397.3 L281.9,404.0
		L283.8,413.8 L284.7,416.5 L285.8,419.2 L287.8,422.4 L288.6,423.6 L289.8,425.2 L291.8,427.6 L292.6,427.9
		L293.7,426.8 L295.7,421.8 L296.6,419.4 L297.7,416.5 L299.7,410.5 L300.6,407.6 L301.7,403.5 L303.6,395.2
		L304.5,391.2 L305.6,385.7 L307.6,375.2 L308.5,372.3 L309.6,370.4 L311.6,367.9 L312.5,367.6 L313.5,367.7
		L315.5,368.5 L316.5,369.0 L317.5,370.5 L319.5,375.5 L320.5,377.0 L321.5,377.6 L323.4,378.3 L324.4,378.8
		L325.4,379.7 L327.4,382.2 L328.4,383.4 L329.4,384.3 L331.4,385.8 L332.4,386.9 L333.3,388.3 L335.3,392.7
		L336.4,395.5 L337.3,399.4 L339.3,409.9 L340.3,412.9 L341.2,413.5 L343.2,414.1 L344.3,414.6 L345.2,415.5
		L347.2,418.0 L348.3,418.7 L349.2,418.0 L351.1,413.6 L352.3,410.9 L353.1,409.1 L355.1,404.9 L356.3,401.6
		L357.1,397.9 L359.1,385.7 L360.2,379.7 L361.0,376.5 L363.0,369.5 L364.2,367.9 L365.0,368.5 L367.0,372.8
		L368.2,375.1 L369.0,375.9 L370.9,377.5 L372.2,378.9 L372.9,380.7 L374.9,388.6 L376.1,392.7 L376.9,394.4
		L378.9,398.4 L380.1,399.4 L380.8,398.6 L382.8,392.4 L384.1,389.9 L384.8,389.8 L386.8,389.7 L388.1,389.5
		L388.8,388.6 L390.7,380.9 L392.1,376.6 L392.7,375.5 L394.7,372.9 L396.0,371.9 L396.7,371.6 L398.6,371.0
		L400.0,370.9 L400.6,371.0 L402.6,372.8 L404.0,374.9 L404.6,376.9 L406.6,390.3 L408.0,397.8 L408.5,399.1
		L410.5,401.9 L411.9,404.5 L412.5,406.4 L414.5,417.5 L415.9,421.8 L416.5,421.3 L418.4,413.8 L419.9,406.0
		L420.4,402.7 L422.4,386.1 L423.9,374.3 L424.4,371.1 L426.4,360.1 L427.8,352.0 L428.3,348.8 L430.3,334.3
		L431.8,327.4 L432.3,326.6 L434.3,324.0 L435.8,323.3 L436.3,324.1 L438.2,339.8 L439.8,353.6 L440.2,356.3
		L442.2,366.7 L443.8,375.5 L444.2,378.3 L446.2,393.9 L447.7,405.5 L448.1,408.0 L450.1,420.5 L451.7,426.4
		L452.1,426.9 L454.1,429.1 L455.7,429.7 L456.0,429.5 L458.0,421.9 L459.7,411.9 L460.0,409.6 L462.0,389.8
		L463.6,377.0 L464.0,375.8 L465.9,369.6 L467.6,367.4 L467.9,367.4 L469.9,367.3 L471.6,367.3 L471.9,367.3
		L473.9,370.7 L475.6,375.3 L475.8,376.1 L477.8,384.9 L479.6,389.5 L479.8,389.5 L481.8,389.3 L483.5,388.9
		L483.8,388.8 L485.7,386.2 L487.5,384.2 L487.7,384.1 L489.7,383.9 L491.5,383.6 L491.7,383.5 L493.7,373.8
		L495.5,365.5 L495.6,365.3 L497.6,364.1 L499.4,362.9 L499.6,362.7 L501.6,355.8 L503.4,351.0 L503.6,351.0
		L505.5,351.0 L507.4,351.0 L507.5,351.0 L509.5,351.0 L511.4,351.0 L511.5,351.0 L513.4,351.0 L515.4,351.0
		L517.4,351.0 L519.3,351.0 L519.4,351.0 L521.4,351.0 L523.3,351.0 L525.3,351.0 L527.3,351.0 L529.3,351.0
		L530.3,351.0 L531.3,351.0  '/></g>
	</g>
<g fill="none" color="#E6E0E1" stroke="rgb(230, 159,   0)" stroke-width="2.00" stroke-linecap="butt" stroke-linejoin="miter">
</g>
<g fill="none" color="black" stroke="currentColor" stroke-width="2.00" stroke-linecap="butt" stroke-linejoin="miter">
</g>
<g fill="none" color="black" stroke="black" stroke-width="1.00" stroke-linecap="butt" stroke-linejoin="miter">
</g>
<g fill="none" color="black" stroke="currentColor" stroke-width="1.00" stroke-linecap="butt" stroke-linejoin="miter">
	<path stroke='black'  d='M48.0,72.1 L48.0,444.0 L551.9,444.0 L551.9,72.1 L48.0,72.1 Z  '/></g>
<g fill="none" color="black" stroke="currentColor" stroke-width="1.00" stroke-linecap="butt" stroke-linejoin="miter">
</g>
</g>
</svg>

